%feature("docstring") gum::WeightedSampling
"
Class used for Weighted sampling inference algorithm.

WeightedSampling(bn) -> WeightedSampling
    Parameters:
        * **bn** (*pyAgrum.BayesNet*) -- a Bayesian network
"